…
``` r
library(tidyverse)
#> ── Attaching packages ──────────────────────────────────────── tidyverse 1.2.1 ──
#> ✔ ggplot2 2.2.1.9000     ✔ purrr   0.2.4     
#> ✔ tibble  1.4.2          ✔ dplyr   0.7.4     
#> ✔ tidyr   0.7.2          ✔ stringr 1.2.0     
#> ✔ readr   1.1.1.9000     ✔ forcats 0.2.0
#> Warning: package 'tibble' was built under R version 3.4.3
#> ── Conflicts ─────────────────────────────────────────── tidyverse_conflicts() ──
#> ✖ dplyr::filter() masks stats::filter()
#> ✖ dplyr::lag()    masks stats::lag()
library(gglorenz)

billionaires
#> # A tibble: 500 x 6
#>    Rank  Name            Total_Net_Worth Country       Industry      TNW
#>    <chr> <chr>           <chr>           <chr>         <chr>       <dbl>
#>  1 1     Jeff Bezos      $118B           United States Technology  118  
#>  2 2     Bill Gates      $91.3B          United States Technology   91.3
#>  3 3     Warren Buffett  $86.1B          United States Diversified  86.1
#>  4 4     Mark Zuckerberg $74.3B          United States Technology   74.3
#>  5 5     Amancio Ortega  $71.7B          Spain         Retail       71.7
#>  6 6     Bernard Arnault $65.0B          France        Consumer     65.0
#>  7 7     Carlos Slim     $64.7B          Mexico        Diversified  64.7
#>  8 8     Larry Ellison   $54.7B          United States Technology   54.7
#>  9 9     Larry Page      $52.6B          United States Technology   52.6
#> 10 10    Sergey Brin     $51.2B          United States Technology   51.2
#> # ... with 490 more rows
…
