Plotting Lorenz Curve with the Blessing of ggplot2 • gglorenz
…
Suppose you have a vector with each element representing the amount of income or wealth of an individual, and you are interested in knowing how much of that is produced by the top x% of the population, then the gglorenz::stat_lorenz(desc = TRUE) would make a ggplot2 graph for you.

library(tidyverse)
#> ── Attaching packages ─────────────────────────────────────────────────────────────────────── tidyverse 1.2.1 ──
#> ✓ ggplot2 3.3.0     ✓ purrr   0.3.4
#> ✓ tibble  3.0.1     ✓ dplyr   1.0.0
#> ✓ tidyr   1.1.0     ✓ stringr 1.4.0
#> ✓ readr   1.3.1     ✓ forcats 0.4.0
#> ── Conflicts ────────────────────────────────────────────────────────────────────────── tidyverse_conflicts() ──
#> x dplyr::filter() masks stats::filter()
#> x dplyr::lag()    masks stats::lag()
library(gglorenz)

billionaires
#> # A tibble: 500 x 6
#>    Rank  Name            Total_Net_Worth Country       Industry      TNW
#>    <chr> <chr>           <chr>           <chr>         <chr>       <dbl>
#>  1 1     Jeff Bezos      $118B           United States Technology  118  
#>  2 2     Bill Gates      $91.3B          United States Technology   91.3
#>  3 3     Warren Buffett  $86.1B          United States Diversified  86.1
#>  4 4     Mark Zuckerberg $74.3B          United States Technology   74.3
#>  5 5     Amancio Ortega  $71.7B          Spain         Retail       71.7
#>  6 6     Bernard Arnault $65.0B          France        Consumer     65  
#>  7 7     Carlos Slim     $64.7B          Mexico        Diversified  64.7
#>  8 8     Larry Ellison   $54.7B          United States Technology   54.7
#>  9 9     Larry Page      $52.6B          United States Technology   52.6
#> 10 10    Sergey Brin     $51.2B          United States Technology   51.2
#> # … with 490 more rows
…
